{
  "name": "adullact-tajine",
  "version": "4.1.0",
  "author": "adullact",
  "summary": "Deploy and configure Tajine, a registration authority pluged to CFSSL PKI",
  "license": "AGPL-3.0",
  "source": "https://gitlab.adullact.net/adullact/puppet-tajine.git",
  "project_page": "https://gitlab.adullact.net/adullact/puppet-tajine/",
  "issues_url": "https://gitlab.adullact.net/adullact/puppet-tajine/issues",
  "dependencies": [
    {
      "name": "puppetlabs-stdlib",
      "version_requirement": ">= 9.0.0 < 10.0.0"
    },
    {
      "name": "puppet/archive",
      "version_requirement": ">= 4.0.0 < 8.0.0"
    },
    {
      "name": "puppetlabs/postgresql",
      "version_requirement": ">= 10.0.0 < 11.0.0"
    }
  ],
  "operatingsystem_support": [
    {
      "operatingsystem": "Ubuntu",
      "operatingsystemrelease": [
        "22.04"
      ]
    }
  ],
  "requirements": [
    {
      "name": "puppet",
      "version_requirement": ">= 7.0.0 < 8.0.0"
    }
  ],
  "tags": [
    "pki",
    "cfssl"
  ],
  "pdk-version": "3.2.0",
  "template-url": "https://github.com/puppetlabs/pdk-templates#3.2.0",
  "template-ref": "tags/3.2.0-0-gb257ef1"
}
